…
#>     filter, lag
#> The following objects are masked from 'package:base':
#> 
#>     intersect, setdiff, setequal, union
library("ggplot2")
rstan_options(auto_write = TRUE) # Cache the compiled model
options(mc.cores = parallel::detectCores() / 2) # Parallel processing
d <- readr::read_csv("data-generated/daily-cases.csv")
#> Parsed with column specification:
#> cols(
#>   date = col_date(format = ""),
#>   cases = col_double()
#> )
d
#> # A tibble: 42 x 2
#>    date       cases
#>    <date>     <dbl>
#>  1 2020-03-01     0
#>  2 2020-03-02     0
#>  3 2020-03-03     1
#>  4 2020-03-04     3
#>  5 2020-03-05     1
#>  6 2020-03-06     8
#>  7 2020-03-07     0
#>  8 2020-03-08     6
#>  9 2020-03-09     5
#> 10 2020-03-10     0
#> # … with 32 more rows
```
…
